,CPU / VCPU,MEMORY,STORAGE / SSD DISK,BANDWIDTH / TRANSFER,PRICE [ $/mo ]
0,1 CPU,512 MB,10 GB,0.50 TB,$2.50
1,1 CPU,512 MB,10 GB,0.50 TB,$3.50
2,1 CPU,1024 MB,25 GB,1 TB,$5
3,1 CPU,2 GB,55 GB,2 TB,$10
4,2 CPU,4 GB,80 GB,3 TB,$20
5,4 CPU,8 GB,160 GB,4 TB,$40
6,6 CPU,16 GB,320 GB,5 TB,$80
7,8 CPU,32 GB,640 GB,6 TB,$160
8,16 CPU,64 GB,1280 GB,10 TB,$320
9,24 CPU,96 GB,1600 GB,15 TB,$640
